
{
    "title":"j",
    "slides":[
        {
            "image_file_name":"BadlandsSouthDakota.jpg",
            "image_path":"C:\\Users\\Adam\\Desktop\\New folder\\SlideshowMaker\\images\\slide_show_images\\",
            "caption":"ENTER CAPTION"
        }
    ]
}